{
  "453f7d61-95c2-3540-9f32-1609f539a60e": "Player564",
  "ca1bc45b-4820-318c-8fd3-5eba4f447561": "Player252",
  "fe171829-6121-3106-a1a5-6a3600a4ef7d": "Player991",
  "1e878937-6147-358d-b9a5-2d994db008c9": "Player595",
  "1b411c64-a8c2-3ec5-98f5-0b867e192819": "Player346",
  "73181018-6474-36f0-8722-c7fb6befd317": "Player52",
  "73e86b1c-09ff-3572-8fd3-6ef90ffece87": "Player190",
  "15ed0ee5-be80-3fc7-a560-57720b198cde": "Player152",
  "2c9d87c8-64e7-3ca8-861e-e4a9ef3d93bc": "Player126",
  "76a85934-d1dc-3e22-b48f-18504df540b9": "Player59",
  "24078ad8-d7e0-3e5c-a4a9-a3bc169a7177": "Player461",
  "00b30fb1-4b45-3336-98e4-8adf600e5f5e": "Player633",
  "2fc0a39d-546e-3157-a8f0-76169a9f279b": "Player13",
  "6634a609-43e8-3247-9054-c77a3a707d73": "Player520",
  "6b45a986-a4aa-3b68-85a3-c5041d0b6192": "Player888",
  "326096ef-db00-3744-84c9-0b71611a13c5": "Player253",
  "c9700ac2-fb69-36ca-b322-09edfc5786fb": "Player251",
  "00bb7f76-47ca-3891-96fe-03177d2fac78": "Player819",
  "de6c7baa-0bd3-34f4-81e0-2a85bbae7554": "Player792",
  "25b11e49-a7c5-3d9c-8271-d4f68f211051": "Player578",
  "8fbcb74c-bd8d-3181-a022-3c858a10477d": "Player119",
  "7d36885a-8062-3bf0-bbc7-0ea5700f9d67": "Player938",
  "68723020-3c7d-332b-9007-b1f8c7a00304": "Player218",
  "a2995085-e0ea-31fe-a01c-a4eefcac9f6b": "Player400",
  "fcd8643a-136f-38b6-9c1f-4f5463ba5d9d": "Player283",
  "a50feb77-a933-303f-a181-1dd807c431cd": "Player441",
  "9c66b502-7304-3207-92e6-8d6afcf30d77": "Player246",
  "8610364c-1fe9-3801-96a1-4fb3dc123fc9": "Player910",
  "d447d002-8f00-3c6c-8a29-93b028d90375": "Player465",
  "aa672712-7b9a-35e7-9d78-80bd1544826b": "Player209",
  "dbef6173-b792-3041-821b-b11445f44ee8": "Player37",
  "6116e2fa-a2e7-3242-8217-a93e1a963211": "Player886",
  "e3cbbed2-a904-3501-9aba-c8ad5473501b": "Player490",
  "a000e289-fff2-30ee-8de9-0ce5e6f063aa": "Player993",
  "2eef3335-8d1f-3428-af42-f3cec9010d4c": "Player336",
  "376eb988-e6dd-3105-bb50-572ead49ce98": "Player690",
  "5d6f5056-9d82-3950-9ee4-6a4e4ed3cf33": "Player125",
  "4e36b848-09be-34a2-9bc7-7017a804cbc3": "Player66",
  "1455153c-1276-3617-8489-c22f3316fb17": "Player857",
  "4de10e95-2f24-3513-b65d-4a73193172f6": "Player802",
  "3b4c06df-8aac-35fe-b01d-5804351603ec": "Player445",
  "17cd00bc-bed9-33c2-9949-d9371a9a3eeb": "Player519",
  "f948ac75-0055-3be3-bc2b-d97345a02022": "Player971",
  "c4e77baf-70eb-32a3-a902-b5720679fae8": "Player416",
  "e6106110-0611-3c88-99d4-92770daab422": "Player193",
  "39ce36e8-f4b8-3b30-a1f4-bfdbbc990254": "Player442",
  "3c604947-c962-3363-b382-8bb20e72179d": "Player390",
  "c5f2027d-c05b-3ad0-bbf1-20e3f4a553c8": "Player207",
  "ad4a30d4-53bd-30c6-b482-5d77fb42b2d7": "Player593",
  "bfc5c6f8-886e-30ef-aac9-4df3c4277f54": "Player933",
  "d6021e41-7343-3bee-bb0e-33bf78c6e47d": "Player230",
  "05d2e66a-903f-3232-a8b0-3899ccc17800": "Player748",
  "b40915cd-d3a7-3e3d-9a52-6fc5334ba2e3": "Player262",
  "f2937d48-a72f-3375-bb6f-69c5f204d185": "Player693",
  "5b615aa5-0042-3651-8971-2294273b0cec": "Player715",
  "eee10812-13cd-3f90-b77f-2195c9c5b71e": "Player69",
  "7beaed24-0a62-3f97-b968-4d6f3b3f19c7": "Player15",
  "5db36629-721d-3a36-8728-14b3ab112351": "Player370",
  "cdb3764d-36f0-3797-a2a1-844d00fc332e": "Player452",
  "337a131b-860d-346e-a281-649e07daeae5": "Player344",
  "130bfefb-ac8d-3a05-b27c-6205f9d12a06": "Player570",
  "8b8434b7-4246-3db8-89e4-a51a52bc8fc9": "Player882",
  "738c48db-b050-3c6f-9053-5a4abfe0d0a6": "Player293",
  "c983ec91-cb7c-368a-b8d4-167bfb5123ef": "Player619",
  "2ce4ef37-1586-3eaf-ba6f-4b93d1e38829": "Player96",
  "d31b2f98-898c-3f1b-b785-db56ff276dc2": "Player946",
  "58c26745-dc3b-3f98-a569-20069366f812": "Player233",
  "78b89d61-eeb6-339b-a649-bd65ff29a266": "Player770",
  "610176b0-594f-3c1a-b889-ed063dbc06ea": "Player340",
  "8dea17cd-e1ef-3064-95ba-e1811660f4f6": "Player872",
  "bf5f6cc7-27dd-3f51-bf40-66ad2b54becf": "Player969",
  "4bb7849b-3b46-3d6a-81b9-13bb408e8517": "Player101",
  "a6b4dba8-2dc6-368b-b6ba-80409a4c8f62": "Player610",
  "e7d801f5-83cd-3782-a52b-ae99232cd193": "Player749",
  "37815b4b-a277-3e88-89c9-687629f7c447": "Player562",
  "e5dd22dc-f598-3b10-8140-672a285a563c": "Player301",
  "d5e76a54-1748-3850-8a88-7d4b819073e0": "Player556",
  "a2831e23-8b0f-3ec4-8539-58e8d4db780a": "Player692",
  "88b1442b-3f7c-34cb-9b8b-19f2bae6b8af": "Player521",
  "4d37c633-0973-3240-a4d3-ce7d81f39110": "Player65",
  "3e3cdda1-3fb1-331c-b583-7387437040de": "Player588",
  "3959aa12-3a9d-3fc4-84ad-d0d3c7c6550b": "Player983",
  "efe2ab2d-072a-337a-9d65-10da4f48c969": "Player451",
  "3e863622-2d77-3b8e-b124-c7923d3d13f8": "Player402",
  "5a8bc451-c1a7-3b73-97ff-34b045dbb0ff": "Player201",
  "cc335f9d-6259-353c-9102-c53f293f9da5": "Player110",
  "7e352200-5a1b-37ca-9d08-8fe764041962": "Player318",
  "4ed99654-4a5a-39dd-9f7c-459b50aa79a5": "Player357",
  "a808da89-2014-3b52-8ec8-9f9283f06338": "Player373",
  "1217a77c-23b0-3185-a8fb-c1d093f65cc0": "Player554",
  "3c0b2b93-1042-3a3d-b6b2-a97839f06c80": "Player322",
  "168f5f60-1523-35b7-93b7-01b2c42226b4": "Player335",
  "1e92cadb-e057-30f8-a789-5ce10551ba1e": "Player563",
  "99c5cfd7-706e-3304-b77d-748a9e6aeb44": "Player917",
  "df7bffa7-7a2f-3fb4-9898-fa23c41e49b8": "Player118",
  "19487181-3859-391a-bf75-143cc8396d12": "Player341",
  "93122710-9b50-34d0-8726-c7db8c850b07": "Player853",
  "65c89fa2-af6f-33c3-b89b-1fc3cdd8f718": "Player662",
  "d60321ce-54ba-31e5-bac3-cbb6a732015a": "Player296",
  "3c7cef0c-c4d3-3eb2-a04d-c369cce398ef": "Player591",
  "2a17dfd1-129d-330b-9eb4-f363ef062eed": "Player120",
  "777409db-46bf-31bf-844f-6d600c083d6c": "Player814",
  "b52d0c01-e908-3f05-9150-dcf0319ded3d": "Player331",
  "e8d9e895-aa3b-3a25-8dde-f1e015a97510": "Player74",
  "a7507e7e-f998-31cf-a2de-0cc0fd0a4de6": "Player401",
  "b555fe5e-72e9-3ef4-9fb1-1ed3982e7f32": "Player670",
  "924198c2-2c42-36d7-958c-f259b1738969": "Player804",
  "fcaee4c1-1fdb-389e-bc03-5d6c73d69c2a": "Player254",
  "a7d84b43-620c-3be0-bbc6-d96e040e37ab": "Player590",
  "157dadc9-e980-331f-9b9a-60b0f155ef62": "Player276",
  "fe412f9e-f508-30d0-b407-ff978cf8fc5c": "Player751",
  "a126324d-4d5f-37d1-a7c2-428b903619ef": "Player717",
  "7666ee64-0e62-3b6a-bb71-85f97c5e0623": "Player317",
  "90bb5d97-9dd4-3b7b-a71d-c51bbf8a4878": "Player877",
  "37e4a5df-2479-34b7-be52-2f491341f6b1": "Player137",
  "10170aa4-882d-3b2e-9798-50b9f8d93a4b": "Player733",
  "dcba42c1-27a4-3c10-af01-648a8cbd49eb": "Player397",
  "ccf0c278-c21f-3ec3-a87c-05202673a5dd": "Player197"
}