{
    "entity.tux.ambient":
    {
        "category": "entity",
        "subtitle": "entity.tux.ambient",
        "sounds": [{ "name": "tuxmod:entity/tux/ambient", "stream" : true}]
    },
    "entity.tux.hurt":
    {
        "category": "entity",
        "subtitle": "entity.tux.hurt",
        "sounds": [{ "name": "tuxmod:entity/tux/hurt", "stream" : true}]
    },
    "entity.tux.death":
    {
        "category": "entity",
        "subtitle": "entity.tux.death",
        "sounds": [{ "name": "tuxmod:entity/tux/death", "stream" : true}]
    }
}